{
  "type": "service_account",
  "project_id": "ytube-vuejs-firestore-tutorial",
  "private_key_id": "b2c9130e397d080d1ec3594ab5986514e4d3ea35",
  "private_key": "-----BEGIN PRIVATE KEY-----\nMIIEvQIBADANBgkqhkiG9w0BAQEFAASCBKcwggSjAgEAAoIBAQCmhKLXcsW81HbV\njE5/0PoDIpfYkYjWSA+BYEiMSoVmbh9P1Z+s4Q4DcHRfnBHMW/N4JUYAVc1+oFi9\nuJNOsHOSfI/P8MwE2YTa90y28cZq/HXoAmSe1HjU6P2LBYvDieNRXvGKfCfzydtg\nnXBgVXo9EFjf9YY2mssx/b5i/rLVUm0prKJ5QjZOPiuRpVvMQeDlCvdPJaCzu3NK\npG+YS9RCwPwEQby8vsHYb4DMKolpbVxMHEyYmHX97L/q8xUUECH3peYwWSuXH/J1\nWniF87ow1JQIR546PNMKUoaS4pR1E99T4eszKITqJJWe6uPxMYW+95JRx5UnlH8i\nj+bkNcexAgMBAAECggEAA+drK/LwaN9wU8xg0MVU/zrR5Y1v8ForJuTbfpKGsyKU\n0FnZTwPNwM3jpJQzpJ9pQ2FYVUytrzDSM8x+g6NGamJKOt1R4zE4WKvgnA9qD/sQ\nRpq7wi+ID7HQs/Ay2ShD8JXxwsXrZ99NKeQ3DMMkRQc7ljCa72/MoMTqsEZ5ad/l\npV8lZ5VVy0C9ANRegPpw3JU5fIEUnwlYLzKDe0QTEZSPhifwWeQDk6r2k5ZweOJB\nYqRqcZqpLPEtgFadCCKGkh2XcCJDj7w27GNChzEVRAo5hBEhvPNuQWuvjuX+gZpy\ne67FOh6oAtTwlAcZLzm0A6ZNXL8LHnKmPfLvpaeV+wKBgQDbTfa5cI6BR9bOZvXa\net9rtDdUrodwraqELCdvgmtQhl1hBB+N9VbsPtlohzq4bHtbbh42pMA7fkrxHwME\n6Iv0Xl71AjYRQulosHuVrIGjClUjZRhQQtkBzCuREtbaeZ8IRnIhR41GxGkV+8GW\ntxfmnI3bYMiYUKpN+25BGvm36wKBgQDCYYj2UyNGS+Ay1fwCDSqArtrJvkOHjxxP\nagOX5/dI5VqsoBZvc/SLQrD2RZnAReI2szTNuQNVo6UQ8GghCi8r6LllWtbDBjFD\ncQi4SblTBu0lHQmEGgRluB9MX+GBkVUArxd/y82JtUb32ofRoUB8VkKPB5Z199v/\nkbvU1sZT0wKBgQCrvnbF6vvvCs+SfNd07l0h/9SFINk4yQiM0fdgQIbCXTerzorX\npZcZFG82iRDXdT118NsAeC2DafhOtLaslWFlUrKStdSZ2Ajqz6s5IAu2H1Vljrpn\nwLIp0jccOeDA4BZHaMPghCSDkzWo3axR17mEBH6jmzv87M8ymwFRQ0rlWQKBgAaq\n4c/ROjyHDcGwpVxMp1CSrt6MsDROLGJs+IKVal4Nv/Z750kbaR/9waQw7v0xaHkH\n3J/R4NNnMZpLJMc9WjDfYryfSQ6Xf8kYb3wiy0CV1DyZqmHlopD6p9gu0cVn/spv\nNxcjHoHCvhRyYoZGSbf6HX5afEa/ocQ6c37xfwwRAoGAIXgGaoUQVVHHGvBE9QUc\nuhz/gu8U74tkJapsUHOIbOtMOFq6/VAvr8q0ajEoLHkgBV0CiuoBu6CIqrZvKhHZ\nAzts5xbJrdzXNHSATC4SZ9RNxU3HY/i4d1i+jvzjb1rU7okdW+hGlDA2FmYP+xym\n311iqWZq6/pK829JFc2dsgA=\n-----END PRIVATE KEY-----\n",
  "client_email": "firebase-adminsdk-zv1s4@ytube-vuejs-firestore-tutorial.iam.gserviceaccount.com",
  "client_id": "100742159007110758665",
  "auth_uri": "https://accounts.google.com/o/oauth2/auth",
  "token_uri": "https://accounts.google.com/o/oauth2/token",
  "auth_provider_x509_cert_url": "https://www.googleapis.com/oauth2/v1/certs",
  "client_x509_cert_url": "https://www.googleapis.com/robot/v1/metadata/x509/firebase-adminsdk-zv1s4%40ytube-vuejs-firestore-tutorial.iam.gserviceaccount.com"
}
